{
  "type": "service_account",
  "project_id": "socialpplication",
  "private_key_id": "9aece6059cc1bc8810a32b4c715550d425eb9b6e",
  "private_key": "-----BEGIN PRIVATE KEY-----\nMIIEvAIBADANBgkqhkiG9w0BAQEFAASCBKYwggSiAgEAAoIBAQDuOd7hLO1+lNqC\nPEtF3EYRpAWShsYSckJK4hzrjHEz3/cB6sU39WTSnuPqX8+RkpVhjAAcVba7DHdl\n7dVOn3jBI4gJ701r94/4TLPzjOk+B6B5HaESOipT40d1K7G04IW25bmRnsvL1/Ja\nkjHgqYXrLFBUCIk1qpjzEIV+PZKy/dhPfKoQlDDNr5YT9vXnMr9ouadyjCo122LD\nOPImyzqHOPuTnRtfJJVAMvxOut2nBky7/6iecuLKP+INyreffX+LRg61K62ze5ym\n8aWZg1inAWbRV2eqjMsuM2Xl4mxO6oYt0gPSK72s7UHxNNwAcr9nsr/AaEJ6f6pq\nrNd1kIWXAgMBAAECggEAG8QN+LPKWIsT7sMFSPa0CgFSjvH7axH7LQwur7uWRCQR\n/5yz8OI+ppfTW7FgGYj6tTxilOreme2Jiw1N49SNeAFirTnBjdh0ZM3X2Yaudsbf\nys4LxHqYDV/7p6n4k+rpWthqqRDXkwIv4qOQga1wiOkI0cqO53zjR81AqeaWTxsy\nfxT8Ku4d7gK5Ka031hypWUdPogRTucX64ml661ZHS60pV7LEqnS2yidDv6PWAKNv\nS7z0KXZbqRiej+azFm2rauVx4SpFZECIfmKfuAR34FXD8p4nq6rswZ5uqbf+5iFK\n4OWYuifbprq40RP5PPhPLY6fLmSSfSRGWUxugCiGtQKBgQD+3+km9eYNlnZNNjCV\n/chDzXtWAGBqucSyr4LHBOE6YOWys3NG4MQAu/vAeoPkLCyKftjA3GCg/z5b3Ouf\nJQM6wIrPB/OEgLEMOIesEr1zCMF/uiCwPYPCviGITPjTgDKE013VC60f0h1jhsK3\nKB3aLNFOkawXYs8VIVrr/81R1QKBgQDvRyRE9F0aty0/RI0H8SyzRqGB0CWOcyIk\n+p0jjC6EMrXZmH0zpn+Bd8v9pWi0hlkh7vzqQfp9vC7lvWfNJoPtENCSSTlZSnR5\nYEif1kvocKG4y138WrMfCrL1xd3le/tiwbZvxKYApwC/gWS+i0wPNhhDhMZcVbdW\nLR/9b/9DuwKBgAHe4NYxXdPhs9KTQD4Jk8uzmWEjNZHy9ReepCYTyhdkmKr8GC9/\n/NBIkOtzur4U+Oq3TZ30wBzOYsXH1E7htalbumkUlNv3GdWOIKjJpmxOtyTZ192T\nRgFK5fIbJoRe34AMERc8M7QVFbQiTBGOENIGHC8ocIvnZL+x8/nhcb9VAoGAAa7h\nbW6+nOp+8fv8dfrXUqeDiVM6gGcE7Xep1U8uIJXuu4ocD1nzeairEayxMNvlEp0I\nwGkYZvwE5G7RpRrJQMimfvDu61bfvN7Vg/JQ9GCecptTnOvSaLx9h8cNiYi2uvob\n22tps4V5Nt+lIsX+EflScF8lug6MTJniqLi59fMCgYAm4uUSxRLtaDq6Mmv7j0++\n4O/j7q6vYt6y2l56GAXo82PTS7Q1fTstpKkN7TyEWRR71jz+xiE6X7aUeOYoGLBd\nyI/VeihNymkzokErMJYNYF54zkh2syIOj1bOQ6PEDG+IwBdske7IEvR7ww5gnh/3\nYw5Houq2H2liBRfdFqgE5g==\n-----END PRIVATE KEY-----\n",
  "client_email": "firebase-adminsdk-bzd2m@socialpplication.iam.gserviceaccount.com",
  "client_id": "117049151875772464388",
  "auth_uri": "https://accounts.google.com/o/oauth2/auth",
  "token_uri": "https://oauth2.googleapis.com/token",
  "auth_provider_x509_cert_url": "https://www.googleapis.com/oauth2/v1/certs",
  "client_x509_cert_url": "https://www.googleapis.com/robot/v1/metadata/x509/firebase-adminsdk-bzd2m%40socialpplication.iam.gserviceaccount.com"
}
